\relax 
\@writefile{lof}{\addvspace {10pt}}
\@writefile{lot}{\addvspace {10pt}}
\@writefile{toc}{\contentsline {chapter}{\chapternumberline {2}Instruccions generals i itinerari del Treball Final de Grau }{3}{chapter.2}}
\newlabel{instruccions}{{\M@TitleReference {2}{Instruccions generals i itinerari del Treball Final de Grau }}{3}{Instruccions generals i itinerari del Treball Final de Grau\relax }{chapter.2}{}}
\@writefile{toc}{\contentsline {section}{\numberline {2.1}Introducci\'o}{3}{section.2.1}}
\@writefile{toc}{\contentsline {section}{\numberline {2.2}Inici del TFG}{3}{section.2.2}}
\@writefile{lof}{\contentsline {figure}{\numberline {2.1}{\ignorespaces Itinerari del TFG}}{3}{figure.2.1}}
\newlabel{fig:itinerari}{{\M@TitleReference {2.1}{Instruccions generals i itinerari del Treball Final de Grau }}{3}{Itinerari del TFG\relax }{figure.2.1}{}}
\@writefile{toc}{\contentsline {section}{\numberline {2.3}Selecci\'o del tema de TFG}{4}{section.2.3}}
\@writefile{toc}{\contentsline {section}{\numberline {2.4}Inscripci\'o de la sol\IeC {\textperiodcentered }licitud de TFG i contracte docent}{4}{section.2.4}}
\@writefile{toc}{\contentsline {section}{\numberline {2.5}Desenvolupament del TFG}{4}{section.2.5}}
\@writefile{toc}{\contentsline {section}{\numberline {2.6}Dip\`osit de la mem\`oria}{5}{section.2.6}}
\@writefile{toc}{\contentsline {section}{\numberline {2.7}Preparaci\'o de la presentaci\'o}{5}{section.2.7}}
\@setckpt{Instruccions}{
\setcounter{page}{6}
\setcounter{equation}{0}
\setcounter{enumi}{0}
\setcounter{enumii}{0}
\setcounter{enumiii}{0}
\setcounter{enumiv}{0}
\setcounter{footnote}{0}
\setcounter{mpfootnote}{0}
\setcounter{@memmarkcntra}{0}
\setcounter{storedpagenumber}{1}
\setcounter{book}{0}
\setcounter{part}{0}
\setcounter{chapter}{2}
\setcounter{section}{7}
\setcounter{subsection}{0}
\setcounter{subsubsection}{0}
\setcounter{paragraph}{0}
\setcounter{subparagraph}{0}
\setcounter{@ppsavesec}{0}
\setcounter{@ppsaveapp}{0}
\setcounter{vslineno}{0}
\setcounter{poemline}{0}
\setcounter{modulo@vs}{0}
\setcounter{memfvsline}{0}
\setcounter{verse}{0}
\setcounter{chrsinstr}{0}
\setcounter{poem}{0}
\setcounter{newflo@tctr}{4}
\setcounter{@contsubnum}{0}
\setcounter{maxsecnumdepth}{2}
\setcounter{sidefootnote}{0}
\setcounter{pagenote}{0}
\setcounter{memfbvline}{0}
\setcounter{bvlinectr}{0}
\setcounter{cp@cntr}{0}
\setcounter{ism@mctr}{0}
\setcounter{xsm@mctr}{0}
\setcounter{csm@mctr}{0}
\setcounter{ksm@mctr}{0}
\setcounter{xksm@mctr}{0}
\setcounter{cksm@mctr}{0}
\setcounter{msm@mctr}{0}
\setcounter{xmsm@mctr}{0}
\setcounter{cmsm@mctr}{0}
\setcounter{bsm@mctr}{0}
\setcounter{workm@mctr}{0}
\setcounter{sheetsequence}{14}
\setcounter{lastsheet}{38}
\setcounter{lastpage}{30}
\setcounter{figure}{1}
\setcounter{lofdepth}{1}
\setcounter{table}{0}
\setcounter{lotdepth}{1}
\setcounter{Item}{0}
\setcounter{memhycontfloat}{0}
\setcounter{bookmark@seq@number}{12}
\setcounter{section@level}{1}
}
