\relax 
\providecommand*{\memsetcounter}[2]{}
\catcode`"\active
\catcode`<\active
\catcode`>\active
\@nameuse{es@quoting}
\catcode`"\active
\providecommand\HyperFirstAtBeginDocument{\AtBeginDocument}
\HyperFirstAtBeginDocument{\ifx\hyper@anchor\@undefined
\global\let\oldcontentsline\contentsline
\gdef\contentsline#1#2#3#4{\oldcontentsline{#1}{#2}{#3}}
\global\let\oldnewlabel\newlabel
\gdef\newlabel#1#2{\newlabelxx{#1}#2}
\gdef\newlabelxx#1#2#3#4#5#6{\oldnewlabel{#1}{{#2}{#3}}}
\AtEndDocument{\ifx\hyper@anchor\@undefined
\let\contentsline\oldcontentsline
\let\newlabel\oldnewlabel
\fi}
\fi}
\global\let\hyper@last\relax 
\gdef\HyperFirstAtBeginDocument#1{#1}
\providecommand\HyField@AuxAddToFields[1]{}
\@writefile{toc}{\changetocdepth  {2}}
\reset@newl@bel
\select@language{catalan}
\@writefile{toc}{\select@language{catalan}}
\@writefile{lof}{\select@language{catalan}}
\@writefile{lot}{\select@language{catalan}}
\@writefile{toc}{\contentsline {chapter}{Sumari}{i}{section*.1}}
\@input{Acronims.aux}
\@input{Resum.aux}
\@input{Introduccio.aux}
\@input{Instruccions.aux}
\@input{Memoria.aux}
\@input{Presentacio.aux}
\@input{Conclusions.aux}
\@input{Annexos.aux}
\bibstyle{IEEEtran}
\bibdata{Bibliografia}
\bibcite{Perelman01}{1}
\bibcite{Malvar08}{2}
\bibcite{Valiente96}{3}
\bibcite{Booth08}{4}
\bibcite{Pierson97}{5}
\bibcite{Blair91}{6}
\bibcite{Padgett08}{7}
\bibcite{Arcy88}{8}
\bibcite{Rice04}{9}
\bibcite{Wil10}{10}
\bibcite{Fea05}{11}
\bibcite{Wri12}{12}
\bibcite{bib1}{13}
\bibcite{bib2}{14}
\bibcite{bib3}{15}
\@writefile{toc}{\contentsline {chapter}{Bibliografia}{31}{section*.8}}
\memsetcounter{lastsheet}{40}
\memsetcounter{lastpage}{32}
