\relax 
\citation{Blair91}
\citation{Padgett08}
\citation{Blair91}
\citation{Padgett08}
\citation{Arcy88}
\citation{Rice04}
\@writefile{lof}{\addvspace {10pt}}
\@writefile{lot}{\addvspace {10pt}}
\@writefile{toc}{\contentsline {chapter}{\chapternumberline {4}La presentaci\'o del Treball Final de Grau}{17}{chapter.4}}
\newlabel{presentaci\'o}{{\M@TitleReference {4}{La presentaci\'o del Treball Final de Grau}}{17}{La presentació del Treball Final de Grau\relax }{chapter.4}{}}
\@writefile{toc}{\contentsline {section}{\numberline {4.1}Principis b\`asics}{17}{section.4.1}}
\acronymused{TFG}
\@writefile{brf}{\backcite{Blair91,Padgett08}{{17}{4.1}{section.4.1}}}
\acronymused{TFG}
\@writefile{brf}{\backcite{Blair91,Padgett08,Arcy88,Rice04}{{17}{4.1}{section.4.1}}}
\citation{Padgett08}
\citation{Padgett08}
\@writefile{toc}{\contentsline {section}{\numberline {4.2}Bones pr\`actiques}{18}{section.4.2}}
\acronymused{TFG}
\@writefile{toc}{\contentsline {subsection}{\numberline {4.2.1}Les transpar\`encies}{18}{subsection.4.2.1}}
\acronymused{TFG}
\acronymused{TFG}
\acronymused{TFG}
\@writefile{brf}{\backcite{Padgett08}{{18}{4.2.1}{subsection.4.2.1}}}
\@writefile{brf}{\backcite{Padgett08}{{18}{4.2.1}{subsection.4.2.1}}}
\@writefile{toc}{\contentsline {subsection}{\numberline {4.2.2}L'exposici\'o i la defensa}{19}{subsection.4.2.2}}
\acronymused{TFG}
\acronymused{TFG}
\@writefile{toc}{\contentsline {section}{\numberline {4.3}Estructura de la presentaci\'o del Treball Final de Grau}{20}{section.4.3}}
\@writefile{toc}{\contentsline {subsection}{\numberline {4.3.1}Portada}{20}{subsection.4.3.1}}
\acronymused{TFG}
\@writefile{toc}{\contentsline {subsection}{\numberline {4.3.2}\'Index}{20}{subsection.4.3.2}}
\@writefile{toc}{\contentsline {subsection}{\numberline {4.3.3}Desenvolupament}{20}{subsection.4.3.3}}
\@writefile{toc}{\contentsline {subsection}{\numberline {4.3.4}Resultats}{20}{subsection.4.3.4}}
\@writefile{toc}{\contentsline {subsection}{\numberline {4.3.5}Conclusions}{21}{subsection.4.3.5}}
\@setckpt{Presentacio}{
\setcounter{page}{22}
\setcounter{equation}{0}
\setcounter{enumi}{4}
\setcounter{enumii}{0}
\setcounter{enumiii}{0}
\setcounter{enumiv}{0}
\setcounter{footnote}{0}
\setcounter{mpfootnote}{0}
\setcounter{@memmarkcntra}{0}
\setcounter{storedpagenumber}{1}
\setcounter{book}{0}
\setcounter{part}{0}
\setcounter{chapter}{4}
\setcounter{section}{3}
\setcounter{subsection}{5}
\setcounter{subsubsection}{0}
\setcounter{paragraph}{0}
\setcounter{subparagraph}{0}
\setcounter{@ppsavesec}{0}
\setcounter{@ppsaveapp}{0}
\setcounter{vslineno}{0}
\setcounter{poemline}{0}
\setcounter{modulo@vs}{0}
\setcounter{memfvsline}{0}
\setcounter{verse}{0}
\setcounter{chrsinstr}{0}
\setcounter{poem}{0}
\setcounter{newflo@tctr}{4}
\setcounter{@contsubnum}{0}
\setcounter{maxsecnumdepth}{2}
\setcounter{sidefootnote}{0}
\setcounter{pagenote}{0}
\setcounter{memfbvline}{0}
\setcounter{bvlinectr}{0}
\setcounter{cp@cntr}{0}
\setcounter{ism@mctr}{0}
\setcounter{xsm@mctr}{0}
\setcounter{csm@mctr}{0}
\setcounter{ksm@mctr}{0}
\setcounter{xksm@mctr}{0}
\setcounter{cksm@mctr}{0}
\setcounter{msm@mctr}{0}
\setcounter{xmsm@mctr}{0}
\setcounter{cmsm@mctr}{0}
\setcounter{bsm@mctr}{0}
\setcounter{workm@mctr}{0}
\setcounter{sheetsequence}{30}
\setcounter{lastsheet}{38}
\setcounter{lastpage}{30}
\setcounter{figure}{0}
\setcounter{lofdepth}{1}
\setcounter{table}{0}
\setcounter{lotdepth}{1}
\setcounter{Item}{10}
\setcounter{memhycontfloat}{0}
\setcounter{bookmark@seq@number}{43}
\setcounter{section@level}{2}
}
